…
``` r
filas <- queue_step(arrivals=T1, service=atend, servers=2)
filas
```

    ## # A tibble: 88 x 6
    ##    arrivals service departures waiting system_time server
    ##       <dbl>   <dbl>      <dbl>   <dbl>       <dbl>  <int>
    ##  1        0       6          6       0           6      1
    ##  2        4       2        103      97          99      2
    ##  3       21      10        217     186         196      1
    ##  4       21       1        211     189         190      2
    ##  5        1       1          2       0           1      2
    ##  6        7       1        165     157         158      1
    ##  7        5       7        126     114         121      1
    ##  8        1       6          8       1           7      2
    ##  9        4       7        109      98         105      1
    ## 10        2      10         55      43          53      2
    ## # ... with 78 more rows
…
